%YAML 1.1
%TAG !u! tag:unity3d.com,2011:
--- !u!1 &2343770661906641048
GameObject:
  m_ObjectHideFlags: 0
  m_CorrespondingSourceObject: {fileID: 0}
  m_PrefabInstance: {fileID: 0}
  m_PrefabAsset: {fileID: 0}
  serializedVersion: 6
  m_Component:
  - component: {fileID: 8853235474751728414}
  - component: {fileID: 1446390545631495971}
  - component: {fileID: 2630251890182126077}
  m_Layer: 0
  m_Name: Layer1
  m_TagString: Untagged
  m_Icon: {fileID: 0}
  m_NavMeshLayer: 0
  m_StaticEditorFlags: 0
  m_IsActive: 1
--- !u!4 &8853235474751728414
Transform:
  m_ObjectHideFlags: 0
  m_CorrespondingSourceObject: {fileID: 0}
  m_PrefabInstance: {fileID: 0}
  m_PrefabAsset: {fileID: 0}
  m_GameObject: {fileID: 2343770661906641048}
  m_LocalRotation: {x: -0, y: -0, z: -0, w: 1}
  m_LocalPosition: {x: 0, y: 0, z: 0}
  m_LocalScale: {x: 1, y: 1, z: 1}
  m_ConstrainProportionsScale: 0
  m_Children: []
  m_Father: {fileID: 679398164566093887}
  m_RootOrder: 0
  m_LocalEulerAnglesHint: {x: 0, y: 0, z: 0}
--- !u!1839735485 &1446390545631495971
Tilemap:
  m_ObjectHideFlags: 0
  m_CorrespondingSourceObject: {fileID: 0}
  m_PrefabInstance: {fileID: 0}
  m_PrefabAsset: {fileID: 0}
  m_GameObject: {fileID: 2343770661906641048}
  m_Enabled: 1
  m_Tiles:
  - first: {x: -3, y: -10, z: 0}
    second:
      serializedVersion: 2
      m_TileIndex: 132
      m_TileSpriteIndex: 132
      m_TileMatrixIndex: 0
      m_TileColorIndex: 0
      m_TileObjectToInstantiateIndex: 65535
      dummyAlignment: 0
      m_AllTileFlags: 1073741825
  - first: {x: -2, y: -10, z: 0}
    second:
      serializedVersion: 2
      m_TileIndex: 133
      m_TileSpriteIndex: 133
      m_TileMatrixIndex: 0
      m_TileColorIndex: 0
      m_TileObjectToInstantiateIndex: 65535
      dummyAlignment: 0
      m_AllTileFlags: 1073741825
  - first: {x: -1, y: -10, z: 0}
    second:
      serializedVersion: 2
      m_TileIndex: 134
      m_TileSpriteIndex: 134
      m_TileMatrixIndex: 0
      m_TileColorIndex: 0
      m_TileObjectToInstantiateIndex: 65535
      dummyAlignment: 0
      m_AllTileFlags: 1073741825
  - first: {x: 0, y: -10, z: 0}
    second:
      serializedVersion: 2
      m_TileIndex: 135
      m_TileSpriteIndex: 135
      m_TileMatrixIndex: 0
      m_TileColorIndex: 0
      m_TileObjectToInstantiateIndex: 65535
      dummyAlignment: 0
      m_AllTileFlags: 1073741825
  - first: {x: 1, y: -10, z: 0}
    second:
      serializedVersion: 2
      m_TileIndex: 136
      m_TileSpriteIndex: 136
      m_TileMatrixIndex: 0
      m_TileColorIndex: 0
      m_TileObjectToInstantiateIndex: 65535
      dummyAlignment: 0
      m_AllTileFlags: 1073741825
  - first: {x: 2, y: -10, z: 0}
    second:
      serializedVersion: 2
      m_TileIndex: 137
      m_TileSpriteIndex: 137
      m_TileMatrixIndex: 0
      m_TileColorIndex: 0
      m_TileObjectToInstantiateIndex: 65535
      dummyAlignment: 0
      m_AllTileFlags: 1073741825
  - first: {x: 3, y: -10, z: 0}
    second:
      serializedVersion: 2
      m_TileIndex: 138
      m_TileSpriteIndex: 138
      m_TileMatrixIndex: 0
      m_TileColorIndex: 0
      m_TileObjectToInstantiateIndex: 65535
      dummyAlignment: 0
      m_AllTileFlags: 1073741825
  - first: {x: 4, y: -10, z: 0}
    second:
      serializedVersion: 2
      m_TileIndex: 139
      m_TileSpriteIndex: 139
      m_TileMatrixIndex: 0
      m_TileColorIndex: 0
      m_TileObjectToInstantiateIndex: 65535
      dummyAlignment: 0
      m_AllTileFlags: 1073741825
  - first: {x: 5, y: -10, z: 0}
    second:
      serializedVersion: 2
      m_TileIndex: 140
      m_TileSpriteIndex: 140
      m_TileMatrixIndex: 0
      m_TileColorIndex: 0
      m_TileObjectToInstantiateIndex: 65535
      dummyAlignment: 0
      m_AllTileFlags: 1073741825
  - first: {x: 6, y: -10, z: 0}
    second:
      serializedVersion: 2
      m_TileIndex: 141
      m_TileSpriteIndex: 141
      m_TileMatrixIndex: 0
      m_TileColorIndex: 0
      m_TileObjectToInstantiateIndex: 65535
      dummyAlignment: 0
      m_AllTileFlags: 1073741825
  - first: {x: 7, y: -10, z: 0}
    second:
      serializedVersion: 2
      m_TileIndex: 142
      m_TileSpriteIndex: 142
      m_TileMatrixIndex: 0
      m_TileColorIndex: 0
      m_TileObjectToInstantiateIndex: 65535
      dummyAlignment: 0
      m_AllTileFlags: 1073741825
  - first: {x: 8, y: -10, z: 0}
    second:
      serializedVersion: 2
      m_TileIndex: 143
      m_TileSpriteIndex: 143
      m_TileMatrixIndex: 0
      m_TileColorIndex: 0
      m_TileObjectToInstantiateIndex: 65535
      dummyAlignment: 0
      m_AllTileFlags: 1073741825
  - first: {x: -3, y: -9, z: 0}
    second:
      serializedVersion: 2
      m_TileIndex: 120
      m_TileSpriteIndex: 120
      m_TileMatrixIndex: 0
      m_TileColorIndex: 0
      m_TileObjectToInstantiateIndex: 65535
      dummyAlignment: 0
      m_AllTileFlags: 1073741825
  - first: {x: -2, y: -9, z: 0}
    second:
      serializedVersion: 2
      m_TileIndex: 121
      m_TileSpriteIndex: 121
      m_TileMatrixIndex: 0
      m_TileColorIndex: 0
      m_TileObjectToInstantiateIndex: 65535
      dummyAlignment: 0
      m_AllTileFlags: 1073741825
  - first: {x: -1, y: -9, z: 0}
    second:
      serializedVersion: 2
      m_TileIndex: 122
      m_TileSpriteIndex: 122
      m_TileMatrixIndex: 0
      m_TileColorIndex: 0
      m_TileObjectToInstantiateIndex: 65535
      dummyAlignment: 0
      m_AllTileFlags: 1073741825
  - first: {x: 0, y: -9, z: 0}
    second:
      serializedVersion: 2
      m_TileIndex: 123
      m_TileSpriteIndex: 123
      m_TileMatrixIndex: 0
      m_TileColorIndex: 0
      m_TileObjectToInstantiateIndex: 65535
      dummyAlignment: 0
      m_AllTileFlags: 1073741825
  - first: {x: 1, y: -9, z: 0}
    second:
      serializedVersion: 2
      m_TileIndex: 124
      m_TileSpriteIndex: 124
      m_TileMatrixIndex: 0
      m_TileColorIndex: 0
      m_TileObjectToInstantiateIndex: 65535
      dummyAlignment: 0
      m_AllTileFlags: 1073741825
  - first: {x: 2, y: -9, z: 0}
    second:
      serializedVersion: 2
      m_TileIndex: 125
      m_TileSpriteIndex: 125
      m_TileMatrixIndex: 0
      m_TileColorIndex: 0
      m_TileObjectToInstantiateIndex: 65535
      dummyAlignment: 0
      m_AllTileFlags: 1073741825
  - first: {x: 3, y: -9, z: 0}
    second:
      serializedVersion: 2
      m_TileIndex: 126
      m_TileSpriteIndex: 126
      m_TileMatrixIndex: 0
      m_TileColorIndex: 0
      m_TileObjectToInstantiateIndex: 65535
      dummyAlignment: 0
      m_AllTileFlags: 1073741825
  - first: {x: 4, y: -9, z: 0}
    second:
      serializedVersion: 2
      m_TileIndex: 127
      m_TileSpriteIndex: 127
      m_TileMatrixIndex: 0
      m_TileColorIndex: 0
      m_TileObjectToInstantiateIndex: 65535
      dummyAlignment: 0
      m_AllTileFlags: 1073741825
  - first: {x: 5, y: -9, z: 0}
    second:
      serializedVersion: 2
      m_TileIndex: 128
      m_TileSpriteIndex: 128
      m_TileMatrixIndex: 0
      m_TileColorIndex: 0
      m_TileObjectToInstantiateIndex: 65535
      dummyAlignment: 0
      m_AllTileFlags: 1073741825
  - first: {x: 6, y: -9, z: 0}
    second:
      serializedVersion: 2
      m_TileIndex: 129
      m_TileSpriteIndex: 129
      m_TileMatrixIndex: 0
      m_TileColorIndex: 0
      m_TileObjectToInstantiateIndex: 65535
      dummyAlignment: 0
      m_AllTileFlags: 1073741825
  - first: {x: 7, y: -9, z: 0}
    second:
      serializedVersion: 2
      m_TileIndex: 130
      m_TileSpriteIndex: 130
      m_TileMatrixIndex: 0
      m_TileColorIndex: 0
      m_TileObjectToInstantiateIndex: 65535
      dummyAlignment: 0
      m_AllTileFlags: 1073741825
  - first: {x: 8, y: -9, z: 0}
    second:
      serializedVersion: 2
      m_TileIndex: 131
      m_TileSpriteIndex: 131
      m_TileMatrixIndex: 0
      m_TileColorIndex: 0
      m_TileObjectToInstantiateIndex: 65535
      dummyAlignment: 0
      m_AllTileFlags: 1073741825
  - first: {x: -3, y: -8, z: 0}
    second:
      serializedVersion: 2
      m_TileIndex: 108
      m_TileSpriteIndex: 108
      m_TileMatrixIndex: 0
      m_TileColorIndex: 0
      m_TileObjectToInstantiateIndex: 65535
      dummyAlignment: 0
      m_AllTileFlags: 1073741825
  - first: {x: -2, y: -8, z: 0}
    second:
      serializedVersion: 2
      m_TileIndex: 109
      m_TileSpriteIndex: 109
      m_TileMatrixIndex: 0
      m_TileColorIndex: 0
      m_TileObjectToInstantiateIndex: 65535
      dummyAlignment: 0
      m_AllTileFlags: 1073741825
  - first: {x: -1, y: -8, z: 0}
    second:
      serializedVersion: 2
      m_TileIndex: 110
      m_TileSpriteIndex: 110
      m_TileMatrixIndex: 0
      m_TileColorIndex: 0
      m_TileObjectToInstantiateIndex: 65535
      dummyAlignment: 0
      m_AllTileFlags: 1073741825
  - first: {x: 0, y: -8, z: 0}
    second:
      serializedVersion: 2
      m_TileIndex: 111
      m_TileSpriteIndex: 111
      m_TileMatrixIndex: 0
      m_TileColorIndex: 0
      m_TileObjectToInstantiateIndex: 65535
      dummyAlignment: 0
      m_AllTileFlags: 1073741825
  - first: {x: 1, y: -8, z: 0}
    second:
      serializedVersion: 2
      m_TileIndex: 112
      m_TileSpriteIndex: 112
      m_TileMatrixIndex: 0
      m_TileColorIndex: 0
      m_TileObjectToInstantiateIndex: 65535
      dummyAlignment: 0
      m_AllTileFlags: 1073741825
  - first: {x: 2, y: -8, z: 0}
    second:
      serializedVersion: 2
      m_TileIndex: 113
      m_TileSpriteIndex: 113
      m_TileMatrixIndex: 0
      m_TileColorIndex: 0
      m_TileObjectToInstantiateIndex: 65535
      dummyAlignment: 0
      m_AllTileFlags: 1073741825
  - first: {x: 3, y: -8, z: 0}
    second:
      serializedVersion: 2
      m_TileIndex: 114
      m_TileSpriteIndex: 114
      m_TileMatrixIndex: 0
      m_TileColorIndex: 0
      m_TileObjectToInstantiateIndex: 65535
      dummyAlignment: 0
      m_AllTileFlags: 1073741825
  - first: {x: 4, y: -8, z: 0}
    second:
      serializedVersion: 2
      m_TileIndex: 115
      m_TileSpriteIndex: 115
      m_TileMatrixIndex: 0
      m_TileColorIndex: 0
      m_TileObjectToInstantiateIndex: 65535
      dummyAlignment: 0
      m_AllTileFlags: 1073741825
  - first: {x: 5, y: -8, z: 0}
    second:
      serializedVersion: 2
      m_TileIndex: 116
      m_TileSpriteIndex: 116
      m_TileMatrixIndex: 0
      m_TileColorIndex: 0
      m_TileObjectToInstantiateIndex: 65535
      dummyAlignment: 0
      m_AllTileFlags: 1073741825
  - first: {x: 6, y: -8, z: 0}
    second:
      serializedVersion: 2
      m_TileIndex: 117
      m_TileSpriteIndex: 117
      m_TileMatrixIndex: 0
      m_TileColorIndex: 0
      m_TileObjectToInstantiateIndex: 65535
      dummyAlignment: 0
      m_AllTileFlags: 1073741825
  - first: {x: 7, y: -8, z: 0}
    second:
      serializedVersion: 2
      m_TileIndex: 118
      m_TileSpriteIndex: 118
      m_TileMatrixIndex: 0
      m_TileColorIndex: 0
      m_TileObjectToInstantiateIndex: 65535
      dummyAlignment: 0
      m_AllTileFlags: 1073741825
  - first: {x: 8, y: -8, z: 0}
    second:
      serializedVersion: 2
      m_TileIndex: 119
      m_TileSpriteIndex: 119
      m_TileMatrixIndex: 0
      m_TileColorIndex: 0
      m_TileObjectToInstantiateIndex: 65535
      dummyAlignment: 0
      m_AllTileFlags: 1073741825
  - first: {x: -3, y: -7, z: 0}
    second:
      serializedVersion: 2
      m_TileIndex: 96
      m_TileSpriteIndex: 96
      m_TileMatrixIndex: 0
      m_TileColorIndex: 0
      m_TileObjectToInstantiateIndex: 65535
      dummyAlignment: 0
      m_AllTileFlags: 1073741825
  - first: {x: -2, y: -7, z: 0}
    second:
      serializedVersion: 2
      m_TileIndex: 97
      m_TileSpriteIndex: 97
      m_TileMatrixIndex: 0
      m_TileColorIndex: 0
      m_TileObjectToInstantiateIndex: 65535
      dummyAlignment: 0
      m_AllTileFlags: 1073741825
  - first: {x: -1, y: -7, z: 0}
    second:
      serializedVersion: 2
      m_TileIndex: 98
      m_TileSpriteIndex: 98
      m_TileMatrixIndex: 0
      m_TileColorIndex: 0
      m_TileObjectToInstantiateIndex: 65535
      dummyAlignment: 0
      m_AllTileFlags: 1073741825
  - first: {x: 0, y: -7, z: 0}
    second:
      serializedVersion: 2
      m_TileIndex: 99
      m_TileSpriteIndex: 99
      m_TileMatrixIndex: 0
      m_TileColorIndex: 0
      m_TileObjectToInstantiateIndex: 65535
      dummyAlignment: 0
      m_AllTileFlags: 1073741825
  - first: {x: 1, y: -7, z: 0}
    second:
      serializedVersion: 2
      m_TileIndex: 100
      m_TileSpriteIndex: 100
      m_TileMatrixIndex: 0
      m_TileColorIndex: 0
      m_TileObjectToInstantiateIndex: 65535
      dummyAlignment: 0
      m_AllTileFlags: 1073741825
  - first: {x: 2, y: -7, z: 0}
    second:
      serializedVersion: 2
      m_TileIndex: 101
      m_TileSpriteIndex: 101
      m_TileMatrixIndex: 0
      m_TileColorIndex: 0
      m_TileObjectToInstantiateIndex: 65535
      dummyAlignment: 0
      m_AllTileFlags: 1073741825
  - first: {x: 3, y: -7, z: 0}
    second:
      serializedVersion: 2
      m_TileIndex: 102
      m_TileSpriteIndex: 102
      m_TileMatrixIndex: 0
      m_TileColorIndex: 0
      m_TileObjectToInstantiateIndex: 65535
      dummyAlignment: 0
      m_AllTileFlags: 1073741825
  - first: {x: 4, y: -7, z: 0}
    second:
      serializedVersion: 2
      m_TileIndex: 103
      m_TileSpriteIndex: 103
      m_TileMatrixIndex: 0
      m_TileColorIndex: 0
      m_TileObjectToInstantiateIndex: 65535
      dummyAlignment: 0
      m_AllTileFlags: 1073741825
  - first: {x: 5, y: -7, z: 0}
    second:
      serializedVersion: 2
      m_TileIndex: 104
      m_TileSpriteIndex: 104
      m_TileMatrixIndex: 0
      m_TileColorIndex: 0
      m_TileObjectToInstantiateIndex: 65535
      dummyAlignment: 0
      m_AllTileFlags: 1073741825
  - first: {x: 6, y: -7, z: 0}
    second:
      serializedVersion: 2
      m_TileIndex: 105
      m_TileSpriteIndex: 105
      m_TileMatrixIndex: 0
      m_TileColorIndex: 0
      m_TileObjectToInstantiateIndex: 65535
      dummyAlignment: 0
      m_AllTileFlags: 1073741825
  - first: {x: 7, y: -7, z: 0}
    second:
      serializedVersion: 2
      m_TileIndex: 106
      m_TileSpriteIndex: 106
      m_TileMatrixIndex: 0
      m_TileColorIndex: 0
      m_TileObjectToInstantiateIndex: 65535
      dummyAlignment: 0
      m_AllTileFlags: 1073741825
  - first: {x: 8, y: -7, z: 0}
    second:
      serializedVersion: 2
      m_TileIndex: 107
      m_TileSpriteIndex: 107
      m_TileMatrixIndex: 0
      m_TileColorIndex: 0
      m_TileObjectToInstantiateIndex: 65535
      dummyAlignment: 0
      m_AllTileFlags: 1073741825
  - first: {x: -3, y: -6, z: 0}
    second:
      serializedVersion: 2
      m_TileIndex: 84
      m_TileSpriteIndex: 84
      m_TileMatrixIndex: 0
      m_TileColorIndex: 0
      m_TileObjectToInstantiateIndex: 65535
      dummyAlignment: 0
      m_AllTileFlags: 1073741825
  - first: {x: -2, y: -6, z: 0}
    second:
      serializedVersion: 2
      m_TileIndex: 85
      m_TileSpriteIndex: 85
      m_TileMatrixIndex: 0
      m_TileColorIndex: 0
      m_TileObjectToInstantiateIndex: 65535
      dummyAlignment: 0
      m_AllTileFlags: 1073741825
  - first: {x: -1, y: -6, z: 0}
    second:
      serializedVersion: 2
      m_TileIndex: 86
      m_TileSpriteIndex: 86
      m_TileMatrixIndex: 0
      m_TileColorIndex: 0
      m_TileObjectToInstantiateIndex: 65535
      dummyAlignment: 0
      m_AllTileFlags: 1073741825
  - first: {x: 0, y: -6, z: 0}
    second:
      serializedVersion: 2
      m_TileIndex: 87
      m_TileSpriteIndex: 87
      m_TileMatrixIndex: 0
      m_TileColorIndex: 0
      m_TileObjectToInstantiateIndex: 65535
      dummyAlignment: 0
      m_AllTileFlags: 1073741825
  - first: {x: 1, y: -6, z: 0}
    second:
      serializedVersion: 2
      m_TileIndex: 88
      m_TileSpriteIndex: 88
      m_TileMatrixIndex: 0
      m_TileColorIndex: 0
      m_TileObjectToInstantiateIndex: 65535
      dummyAlignment: 0
      m_AllTileFlags: 1073741825
  - first: {x: 2, y: -6, z: 0}
    second:
      serializedVersion: 2
      m_TileIndex: 89
      m_TileSpriteIndex: 89
      m_TileMatrixIndex: 0
      m_TileColorIndex: 0
      m_TileObjectToInstantiateIndex: 65535
      dummyAlignment: 0
      m_AllTileFlags: 1073741825
  - first: {x: 3, y: -6, z: 0}
    second:
      serializedVersion: 2
      m_TileIndex: 90
      m_TileSpriteIndex: 90
      m_TileMatrixIndex: 0
      m_TileColorIndex: 0
      m_TileObjectToInstantiateIndex: 65535
      dummyAlignment: 0
      m_AllTileFlags: 1073741825
  - first: {x: 4, y: -6, z: 0}
    second:
      serializedVersion: 2
      m_TileIndex: 91
      m_TileSpriteIndex: 91
      m_TileMatrixIndex: 0
      m_TileColorIndex: 0
      m_TileObjectToInstantiateIndex: 65535
      dummyAlignment: 0
      m_AllTileFlags: 1073741825
  - first: {x: 5, y: -6, z: 0}
    second:
      serializedVersion: 2
      m_TileIndex: 92
      m_TileSpriteIndex: 92
      m_TileMatrixIndex: 0
      m_TileColorIndex: 0
      m_TileObjectToInstantiateIndex: 65535
      dummyAlignment: 0
      m_AllTileFlags: 1073741825
  - first: {x: 6, y: -6, z: 0}
    second:
      serializedVersion: 2
      m_TileIndex: 93
      m_TileSpriteIndex: 93
      m_TileMatrixIndex: 0
      m_TileColorIndex: 0
      m_TileObjectToInstantiateIndex: 65535
      dummyAlignment: 0
      m_AllTileFlags: 1073741825
  - first: {x: 7, y: -6, z: 0}
    second:
      serializedVersion: 2
      m_TileIndex: 94
      m_TileSpriteIndex: 94
      m_TileMatrixIndex: 0
      m_TileColorIndex: 0
      m_TileObjectToInstantiateIndex: 65535
      dummyAlignment: 0
      m_AllTileFlags: 1073741825
  - first: {x: 8, y: -6, z: 0}
    second:
      serializedVersion: 2
      m_TileIndex: 95
      m_TileSpriteIndex: 95
      m_TileMatrixIndex: 0
      m_TileColorIndex: 0
      m_TileObjectToInstantiateIndex: 65535
      dummyAlignment: 0
      m_AllTileFlags: 1073741825
  - first: {x: -3, y: -5, z: 0}
    second:
      serializedVersion: 2
      m_TileIndex: 72
      m_TileSpriteIndex: 72
      m_TileMatrixIndex: 0
      m_TileColorIndex: 0
      m_TileObjectToInstantiateIndex: 65535
      dummyAlignment: 0
      m_AllTileFlags: 1073741825
  - first: {x: -2, y: -5, z: 0}
    second:
      serializedVersion: 2
      m_TileIndex: 73
      m_TileSpriteIndex: 73
      m_TileMatrixIndex: 0
      m_TileColorIndex: 0
      m_TileObjectToInstantiateIndex: 65535
      dummyAlignment: 0
      m_AllTileFlags: 1073741825
  - first: {x: -1, y: -5, z: 0}
    second:
      serializedVersion: 2
      m_TileIndex: 74
      m_TileSpriteIndex: 74
      m_TileMatrixIndex: 0
      m_TileColorIndex: 0
      m_TileObjectToInstantiateIndex: 65535
      dummyAlignment: 0
      m_AllTileFlags: 1073741825
  - first: {x: 0, y: -5, z: 0}
    second:
      serializedVersion: 2
      m_TileIndex: 75
      m_TileSpriteIndex: 75
      m_TileMatrixIndex: 0
      m_TileColorIndex: 0
      m_TileObjectToInstantiateIndex: 65535
      dummyAlignment: 0
      m_AllTileFlags: 1073741825
  - first: {x: 1, y: -5, z: 0}
    second:
      serializedVersion: 2
      m_TileIndex: 76
      m_TileSpriteIndex: 76
      m_TileMatrixIndex: 0
      m_TileColorIndex: 0
      m_TileObjectToInstantiateIndex: 65535
      dummyAlignment: 0
      m_AllTileFlags: 1073741825
  - first: {x: 2, y: -5, z: 0}
    second:
      serializedVersion: 2
      m_TileIndex: 77
      m_TileSpriteIndex: 77
      m_TileMatrixIndex: 0
      m_TileColorIndex: 0
      m_TileObjectToInstantiateIndex: 65535
      dummyAlignment: 0
      m_AllTileFlags: 1073741825
  - first: {x: 3, y: -5, z: 0}
    second:
      serializedVersion: 2
      m_TileIndex: 78
      m_TileSpriteIndex: 78
      m_TileMatrixIndex: 0
      m_TileColorIndex: 0
      m_TileObjectToInstantiateIndex: 65535
      dummyAlignment: 0
      m_AllTileFlags: 1073741825
  - first: {x: 4, y: -5, z: 0}
    second:
      serializedVersion: 2
      m_TileIndex: 79
      m_TileSpriteIndex: 79
      m_TileMatrixIndex: 0
      m_TileColorIndex: 0
      m_TileObjectToInstantiateIndex: 65535
      dummyAlignment: 0
      m_AllTileFlags: 1073741825
  - first: {x: 5, y: -5, z: 0}
    second:
      serializedVersion: 2
      m_TileIndex: 80
      m_TileSpriteIndex: 80
      m_TileMatrixIndex: 0
      m_TileColorIndex: 0
      m_TileObjectToInstantiateIndex: 65535
      dummyAlignment: 0
      m_AllTileFlags: 1073741825
  - first: {x: 6, y: -5, z: 0}
    second:
      serializedVersion: 2
      m_TileIndex: 81
      m_TileSpriteIndex: 81
      m_TileMatrixIndex: 0
      m_TileColorIndex: 0
      m_TileObjectToInstantiateIndex: 65535
      dummyAlignment: 0
      m_AllTileFlags: 1073741825
  - first: {x: 7, y: -5, z: 0}
    second:
      serializedVersion: 2
      m_TileIndex: 82
      m_TileSpriteIndex: 82
      m_TileMatrixIndex: 0
      m_TileColorIndex: 0
      m_TileObjectToInstantiateIndex: 65535
      dummyAlignment: 0
      m_AllTileFlags: 1073741825
  - first: {x: 8, y: -5, z: 0}
    second:
      serializedVersion: 2
      m_TileIndex: 83
      m_TileSpriteIndex: 83
      m_TileMatrixIndex: 0
      m_TileColorIndex: 0
      m_TileObjectToInstantiateIndex: 65535
      dummyAlignment: 0
      m_AllTileFlags: 1073741825
  - first: {x: -3, y: -4, z: 0}
    second:
      serializedVersion: 2
      m_TileIndex: 60
      m_TileSpriteIndex: 60
      m_TileMatrixIndex: 0
      m_TileColorIndex: 0
      m_TileObjectToInstantiateIndex: 65535
      dummyAlignment: 0
      m_AllTileFlags: 1073741825
  - first: {x: -2, y: -4, z: 0}
    second:
      serializedVersion: 2
      m_TileIndex: 61
      m_TileSpriteIndex: 61
      m_TileMatrixIndex: 0
      m_TileColorIndex: 0
      m_TileObjectToInstantiateIndex: 65535
      dummyAlignment: 0
      m_AllTileFlags: 1073741825
  - first: {x: -1, y: -4, z: 0}
    second:
      serializedVersion: 2
      m_TileIndex: 62
      m_TileSpriteIndex: 62
      m_TileMatrixIndex: 0
      m_TileColorIndex: 0
      m_TileObjectToInstantiateIndex: 65535
      dummyAlignment: 0
      m_AllTileFlags: 1073741825
  - first: {x: 0, y: -4, z: 0}
    second:
      serializedVersion: 2
      m_TileIndex: 63
      m_TileSpriteIndex: 63
      m_TileMatrixIndex: 0
      m_TileColorIndex: 0
      m_TileObjectToInstantiateIndex: 65535
      dummyAlignment: 0
      m_AllTileFlags: 1073741825
  - first: {x: 1, y: -4, z: 0}
    second:
      serializedVersion: 2
      m_TileIndex: 64
      m_TileSpriteIndex: 64
      m_TileMatrixIndex: 0
      m_TileColorIndex: 0
      m_TileObjectToInstantiateIndex: 65535
      dummyAlignment: 0
      m_AllTileFlags: 1073741825
  - first: {x: 2, y: -4, z: 0}
    second:
      serializedVersion: 2
      m_TileIndex: 65
      m_TileSpriteIndex: 65
      m_TileMatrixIndex: 0
      m_TileColorIndex: 0
      m_TileObjectToInstantiateIndex: 65535
      dummyAlignment: 0
      m_AllTileFlags: 1073741825
  - first: {x: 3, y: -4, z: 0}
    second:
      serializedVersion: 2
      m_TileIndex: 66
      m_TileSpriteIndex: 66
      m_TileMatrixIndex: 0
      m_TileColorIndex: 0
      m_TileObjectToInstantiateIndex: 65535
      dummyAlignment: 0
      m_AllTileFlags: 1073741825
  - first: {x: 4, y: -4, z: 0}
    second:
      serializedVersion: 2
      m_TileIndex: 67
      m_TileSpriteIndex: 67
      m_TileMatrixIndex: 0
      m_TileColorIndex: 0
      m_TileObjectToInstantiateIndex: 65535
      dummyAlignment: 0
      m_AllTileFlags: 1073741825
  - first: {x: 5, y: -4, z: 0}
    second:
      serializedVersion: 2
      m_TileIndex: 68
      m_TileSpriteIndex: 68
      m_TileMatrixIndex: 0
      m_TileColorIndex: 0
      m_TileObjectToInstantiateIndex: 65535
      dummyAlignment: 0
      m_AllTileFlags: 1073741825
  - first: {x: 6, y: -4, z: 0}
    second:
      serializedVersion: 2
      m_TileIndex: 69
      m_TileSpriteIndex: 69
      m_TileMatrixIndex: 0
      m_TileColorIndex: 0
      m_TileObjectToInstantiateIndex: 65535
      dummyAlignment: 0
      m_AllTileFlags: 1073741825
  - first: {x: 7, y: -4, z: 0}
    second:
      serializedVersion: 2
      m_TileIndex: 70
      m_TileSpriteIndex: 70
      m_TileMatrixIndex: 0
      m_TileColorIndex: 0
      m_TileObjectToInstantiateIndex: 65535
      dummyAlignment: 0
      m_AllTileFlags: 1073741825
  - first: {x: 8, y: -4, z: 0}
    second:
      serializedVersion: 2
      m_TileIndex: 71
      m_TileSpriteIndex: 71
      m_TileMatrixIndex: 0
      m_TileColorIndex: 0
      m_TileObjectToInstantiateIndex: 65535
      dummyAlignment: 0
      m_AllTileFlags: 1073741825
  - first: {x: -3, y: -3, z: 0}
    second:
      serializedVersion: 2
      m_TileIndex: 52
      m_TileSpriteIndex: 48
      m_TileMatrixIndex: 0
      m_TileColorIndex: 0
      m_TileObjectToInstantiateIndex: 65535
      dummyAlignment: 0
      m_AllTileFlags: 1073741825
  - first: {x: -2, y: -3, z: 0}
    second:
      serializedVersion: 2
      m_TileIndex: 20
      m_TileSpriteIndex: 49
      m_TileMatrixIndex: 0
      m_TileColorIndex: 0
      m_TileObjectToInstantiateIndex: 65535
      dummyAlignment: 0
      m_AllTileFlags: 1073741825
  - first: {x: -1, y: -3, z: 0}
    second:
      serializedVersion: 2
      m_TileIndex: 21
      m_TileSpriteIndex: 50
      m_TileMatrixIndex: 0
      m_TileColorIndex: 0
      m_TileObjectToInstantiateIndex: 65535
      dummyAlignment: 0
      m_AllTileFlags: 1073741825
  - first: {x: 0, y: -3, z: 0}
    second:
      serializedVersion: 2
      m_TileIndex: 22
      m_TileSpriteIndex: 51
      m_TileMatrixIndex: 0
      m_TileColorIndex: 0
      m_TileObjectToInstantiateIndex: 65535
      dummyAlignment: 0
      m_AllTileFlags: 1073741825
  - first: {x: 1, y: -3, z: 0}
    second:
      serializedVersion: 2
      m_TileIndex: 23
      m_TileSpriteIndex: 52
      m_TileMatrixIndex: 0
      m_TileColorIndex: 0
      m_TileObjectToInstantiateIndex: 65535
      dummyAlignment: 0
      m_AllTileFlags: 1073741825
  - first: {x: 2, y: -3, z: 0}
    second:
      serializedVersion: 2
      m_TileIndex: 53
      m_TileSpriteIndex: 53
      m_TileMatrixIndex: 0
      m_TileColorIndex: 0
      m_TileObjectToInstantiateIndex: 65535
      dummyAlignment: 0
      m_AllTileFlags: 1073741825
  - first: {x: 3, y: -3, z: 0}
    second:
      serializedVersion: 2
      m_TileIndex: 54
      m_TileSpriteIndex: 54
      m_TileMatrixIndex: 0
      m_TileColorIndex: 0
      m_TileObjectToInstantiateIndex: 65535
      dummyAlignment: 0
      m_AllTileFlags: 1073741825
  - first: {x: 4, y: -3, z: 0}
    second:
      serializedVersion: 2
      m_TileIndex: 55
      m_TileSpriteIndex: 55
      m_TileMatrixIndex: 0
      m_TileColorIndex: 0
      m_TileObjectToInstantiateIndex: 65535
      dummyAlignment: 0
      m_AllTileFlags: 1073741825
  - first: {x: 5, y: -3, z: 0}
    second:
      serializedVersion: 2
      m_TileIndex: 56
      m_TileSpriteIndex: 56
      m_TileMatrixIndex: 0
      m_TileColorIndex: 0
      m_TileObjectToInstantiateIndex: 65535
      dummyAlignment: 0
      m_AllTileFlags: 1073741825
  - first: {x: 6, y: -3, z: 0}
    second:
      serializedVersion: 2
      m_TileIndex: 57
      m_TileSpriteIndex: 57
      m_TileMatrixIndex: 0
      m_TileColorIndex: 0
      m_TileObjectToInstantiateIndex: 65535
      dummyAlignment: 0
      m_AllTileFlags: 1073741825
  - first: {x: 7, y: -3, z: 0}
    second:
      serializedVersion: 2
      m_TileIndex: 58
      m_TileSpriteIndex: 58
      m_TileMatrixIndex: 0
      m_TileColorIndex: 0
      m_TileObjectToInstantiateIndex: 65535
      dummyAlignment: 0
      m_AllTileFlags: 1073741825
  - first: {x: 8, y: -3, z: 0}
    second:
      serializedVersion: 2
      m_TileIndex: 59
      m_TileSpriteIndex: 59
      m_TileMatrixIndex: 0
      m_TileColorIndex: 0
      m_TileObjectToInstantiateIndex: 65535
      dummyAlignment: 0
      m_AllTileFlags: 1073741825
  - first: {x: -3, y: -2, z: 0}
    second:
      serializedVersion: 2
      m_TileIndex: 45
      m_TileSpriteIndex: 36
      m_TileMatrixIndex: 0
      m_TileColorIndex: 0
      m_TileObjectToInstantiateIndex: 65535
      dummyAlignment: 0
      m_AllTileFlags: 1073741825
  - first: {x: -2, y: -2, z: 0}
    second:
      serializedVersion: 2
      m_TileIndex: 15
      m_TileSpriteIndex: 37
      m_TileMatrixIndex: 0
      m_TileColorIndex: 0
      m_TileObjectToInstantiateIndex: 65535
      dummyAlignment: 0
      m_AllTileFlags: 1073741825
  - first: {x: -1, y: -2, z: 0}
    second:
      serializedVersion: 2
      m_TileIndex: 16
      m_TileSpriteIndex: 38
      m_TileMatrixIndex: 0
      m_TileColorIndex: 0
      m_TileObjectToInstantiateIndex: 65535
      dummyAlignment: 0
      m_AllTileFlags: 1073741825
  - first: {x: 0, y: -2, z: 0}
    second:
      serializedVersion: 2
      m_TileIndex: 17
      m_TileSpriteIndex: 39
      m_TileMatrixIndex: 0
      m_TileColorIndex: 0
      m_TileObjectToInstantiateIndex: 65535
      dummyAlignment: 0
      m_AllTileFlags: 1073741825
  - first: {x: 1, y: -2, z: 0}
    second:
      serializedVersion: 2
      m_TileIndex: 18
      m_TileSpriteIndex: 40
      m_TileMatrixIndex: 0
      m_TileColorIndex: 0
      m_TileObjectToInstantiateIndex: 65535
      dummyAlignment: 0
      m_AllTileFlags: 1073741825
  - first: {x: 2, y: -2, z: 0}
    second:
      serializedVersion: 2
      m_TileIndex: 19
      m_TileSpriteIndex: 41
      m_TileMatrixIndex: 0
      m_TileColorIndex: 0
      m_TileObjectToInstantiateIndex: 65535
      dummyAlignment: 0
      m_AllTileFlags: 1073741825
  - first: {x: 3, y: -2, z: 0}
    second:
      serializedVersion: 2
      m_TileIndex: 46
      m_TileSpriteIndex: 42
      m_TileMatrixIndex: 0
      m_TileColorIndex: 0
      m_TileObjectToInstantiateIndex: 65535
      dummyAlignment: 0
      m_AllTileFlags: 1073741825
  - first: {x: 4, y: -2, z: 0}
    second:
      serializedVersion: 2
      m_TileIndex: 47
      m_TileSpriteIndex: 43
      m_TileMatrixIndex: 0
      m_TileColorIndex: 0
      m_TileObjectToInstantiateIndex: 65535
      dummyAlignment: 0
      m_AllTileFlags: 1073741825
  - first: {x: 5, y: -2, z: 0}
    second:
      serializedVersion: 2
      m_TileIndex: 48
      m_TileSpriteIndex: 44
      m_TileMatrixIndex: 0
      m_TileColorIndex: 0
      m_TileObjectToInstantiateIndex: 65535
      dummyAlignment: 0
      m_AllTileFlags: 1073741825
  - first: {x: 6, y: -2, z: 0}
    second:
      serializedVersion: 2
      m_TileIndex: 49
      m_TileSpriteIndex: 45
      m_TileMatrixIndex: 0
      m_TileColorIndex: 0
      m_TileObjectToInstantiateIndex: 65535
      dummyAlignment: 0
      m_AllTileFlags: 1073741825
  - first: {x: 7, y: -2, z: 0}
    second:
      serializedVersion: 2
      m_TileIndex: 50
      m_TileSpriteIndex: 46
      m_TileMatrixIndex: 0
      m_TileColorIndex: 0
      m_TileObjectToInstantiateIndex: 65535
      dummyAlignment: 0
      m_AllTileFlags: 1073741825
  - first: {x: 8, y: -2, z: 0}
    second:
      serializedVersion: 2
      m_TileIndex: 51
      m_TileSpriteIndex: 47
      m_TileMatrixIndex: 0
      m_TileColorIndex: 0
      m_TileObjectToInstantiateIndex: 65535
      dummyAlignment: 0
      m_AllTileFlags: 1073741825
  - first: {x: -3, y: -1, z: 0}
    second:
      serializedVersion: 2
      m_TileIndex: 38
      m_TileSpriteIndex: 24
      m_TileMatrixIndex: 0
      m_TileColorIndex: 0
      m_TileObjectToInstantiateIndex: 65535
      dummyAlignment: 0
      m_AllTileFlags: 1073741825
  - first: {x: -2, y: -1, z: 0}
    second:
      serializedVersion: 2
      m_TileIndex: 10
      m_TileSpriteIndex: 25
      m_TileMatrixIndex: 0
      m_TileColorIndex: 0
      m_TileObjectToInstantiateIndex: 65535
      dummyAlignment: 0
      m_AllTileFlags: 1073741825
  - first: {x: -1, y: -1, z: 0}
    second:
      serializedVersion: 2
      m_TileIndex: 11
      m_TileSpriteIndex: 26
      m_TileMatrixIndex: 0
      m_TileColorIndex: 0
      m_TileObjectToInstantiateIndex: 65535
      dummyAlignment: 0
      m_AllTileFlags: 1073741825
  - first: {x: 0, y: -1, z: 0}
    second:
      serializedVersion: 2
      m_TileIndex: 12
      m_TileSpriteIndex: 27
      m_TileMatrixIndex: 0
      m_TileColorIndex: 0
      m_TileObjectToInstantiateIndex: 65535
      dummyAlignment: 0
      m_AllTileFlags: 1073741825
  - first: {x: 1, y: -1, z: 0}
    second:
      serializedVersion: 2
      m_TileIndex: 13
      m_TileSpriteIndex: 28
      m_TileMatrixIndex: 0
      m_TileColorIndex: 0
      m_TileObjectToInstantiateIndex: 65535
      dummyAlignment: 0
      m_AllTileFlags: 1073741825
  - first: {x: 2, y: -1, z: 0}
    second:
      serializedVersion: 2
      m_TileIndex: 14
      m_TileSpriteIndex: 29
      m_TileMatrixIndex: 0
      m_TileColorIndex: 0
      m_TileObjectToInstantiateIndex: 65535
      dummyAlignment: 0
      m_AllTileFlags: 1073741825
  - first: {x: 3, y: -1, z: 0}
    second:
      serializedVersion: 2
      m_TileIndex: 39
      m_TileSpriteIndex: 30
      m_TileMatrixIndex: 0
      m_TileColorIndex: 0
      m_TileObjectToInstantiateIndex: 65535
      dummyAlignment: 0
      m_AllTileFlags: 1073741825
  - first: {x: 4, y: -1, z: 0}
    second:
      serializedVersion: 2
      m_TileIndex: 40
      m_TileSpriteIndex: 31
      m_TileMatrixIndex: 0
      m_TileColorIndex: 0
      m_TileObjectToInstantiateIndex: 65535
      dummyAlignment: 0
      m_AllTileFlags: 1073741825
  - first: {x: 5, y: -1, z: 0}
    second:
      serializedVersion: 2
      m_TileIndex: 41
      m_TileSpriteIndex: 32
      m_TileMatrixIndex: 0
      m_TileColorIndex: 0
      m_TileObjectToInstantiateIndex: 65535
      dummyAlignment: 0
      m_AllTileFlags: 1073741825
  - first: {x: 6, y: -1, z: 0}
    second:
      serializedVersion: 2
      m_TileIndex: 42
      m_TileSpriteIndex: 33
      m_TileMatrixIndex: 0
      m_TileColorIndex: 0
      m_TileObjectToInstantiateIndex: 65535
      dummyAlignment: 0
      m_AllTileFlags: 1073741825
  - first: {x: 7, y: -1, z: 0}
    second:
      serializedVersion: 2
      m_TileIndex: 43
      m_TileSpriteIndex: 34
      m_TileMatrixIndex: 0
      m_TileColorIndex: 0
      m_TileObjectToInstantiateIndex: 65535
      dummyAlignment: 0
      m_AllTileFlags: 1073741825
  - first: {x: 8, y: -1, z: 0}
    second:
      serializedVersion: 2
      m_TileIndex: 44
      m_TileSpriteIndex: 35
      m_TileMatrixIndex: 0
      m_TileColorIndex: 0
      m_TileObjectToInstantiateIndex: 65535
      dummyAlignment: 0
      m_AllTileFlags: 1073741825
  - first: {x: -3, y: 0, z: 0}
    second:
      serializedVersion: 2
      m_TileIndex: 31
      m_TileSpriteIndex: 12
      m_TileMatrixIndex: 0
      m_TileColorIndex: 0
      m_TileObjectToInstantiateIndex: 65535
      dummyAlignment: 0
      m_AllTileFlags: 1073741825
  - first: {x: -2, y: 0, z: 0}
    second:
      serializedVersion: 2
      m_TileIndex: 5
      m_TileSpriteIndex: 13
      m_TileMatrixIndex: 0
      m_TileColorIndex: 0
      m_TileObjectToInstantiateIndex: 65535
      dummyAlignment: 0
      m_AllTileFlags: 1073741825
  - first: {x: -1, y: 0, z: 0}
    second:
      serializedVersion: 2
      m_TileIndex: 6
      m_TileSpriteIndex: 14
      m_TileMatrixIndex: 0
      m_TileColorIndex: 0
      m_TileObjectToInstantiateIndex: 65535
      dummyAlignment: 0
      m_AllTileFlags: 1073741825
  - first: {x: 0, y: 0, z: 0}
    second:
      serializedVersion: 2
      m_TileIndex: 7
      m_TileSpriteIndex: 23
      m_TileMatrixIndex: 0
      m_TileColorIndex: 0
      m_TileObjectToInstantiateIndex: 65535
      dummyAlignment: 0
      m_AllTileFlags: 1073741825
  - first: {x: 1, y: 0, z: 0}
    second:
      serializedVersion: 2
      m_TileIndex: 8
      m_TileSpriteIndex: 16
      m_TileMatrixIndex: 0
      m_TileColorIndex: 0
      m_TileObjectToInstantiateIndex: 65535
      dummyAlignment: 0
      m_AllTileFlags: 1073741825
  - first: {x: 2, y: 0, z: 0}
    second:
      serializedVersion: 2
      m_TileIndex: 9
      m_TileSpriteIndex: 17
      m_TileMatrixIndex: 0
      m_TileColorIndex: 0
      m_TileObjectToInstantiateIndex: 65535
      dummyAlignment: 0
      m_AllTileFlags: 1073741825
  - first: {x: 3, y: 0, z: 0}
    second:
      serializedVersion: 2
      m_TileIndex: 32
      m_TileSpriteIndex: 18
      m_TileMatrixIndex: 0
      m_TileColorIndex: 0
      m_TileObjectToInstantiateIndex: 65535
      dummyAlignment: 0
      m_AllTileFlags: 1073741825
  - first: {x: 4, y: 0, z: 0}
    second:
      serializedVersion: 2
      m_TileIndex: 33
      m_TileSpriteIndex: 19
      m_TileMatrixIndex: 0
      m_TileColorIndex: 0
      m_TileObjectToInstantiateIndex: 65535
      dummyAlignment: 0
      m_AllTileFlags: 1073741825
  - first: {x: 5, y: 0, z: 0}
    second:
      serializedVersion: 2
      m_TileIndex: 34
      m_TileSpriteIndex: 0
      m_TileMatrixIndex: 0
      m_TileColorIndex: 0
      m_TileObjectToInstantiateIndex: 65535
      dummyAlignment: 0
      m_AllTileFlags: 1073741825
  - first: {x: 6, y: 0, z: 0}
    second:
      serializedVersion: 2
      m_TileIndex: 35
      m_TileSpriteIndex: 20
      m_TileMatrixIndex: 0
      m_TileColorIndex: 0
      m_TileObjectToInstantiateIndex: 65535
      dummyAlignment: 0
      m_AllTileFlags: 1073741825
  - first: {x: 7, y: 0, z: 0}
    second:
      serializedVersion: 2
      m_TileIndex: 36
      m_TileSpriteIndex: 21
      m_TileMatrixIndex: 0
      m_TileColorIndex: 0
      m_TileObjectToInstantiateIndex: 65535
      dummyAlignment: 0
      m_AllTileFlags: 1073741825
  - first: {x: 8, y: 0, z: 0}
    second:
      serializedVersion: 2
      m_TileIndex: 37
      m_TileSpriteIndex: 22
      m_TileMatrixIndex: 0
      m_TileColorIndex: 0
      m_TileObjectToInstantiateIndex: 65535
      dummyAlignment: 0
      m_AllTileFlags: 1073741825
  - first: {x: -3, y: 1, z: 0}
    second:
      serializedVersion: 2
      m_TileIndex: 24
      m_TileSpriteIndex: 5
      m_TileMatrixIndex: 0
      m_TileColorIndex: 0
      m_TileObjectToInstantiateIndex: 65535
      dummyAlignment: 0
      m_AllTileFlags: 1073741825
  - first: {x: -2, y: 1, z: 0}
    second:
      serializedVersion: 2
      m_TileIndex: 0
      m_TileSpriteIndex: 1
      m_TileMatrixIndex: 0
      m_TileColorIndex: 0
      m_TileObjectToInstantiateIndex: 65535
      dummyAlignment: 0
      m_AllTileFlags: 1073741825
  - first: {x: -1, y: 1, z: 0}
    second:
      serializedVersion: 2
      m_TileIndex: 1
      m_TileSpriteIndex: 2
      m_TileMatrixIndex: 0
      m_TileColorIndex: 0
      m_TileObjectToInstantiateIndex: 65535
      dummyAlignment: 0
      m_AllTileFlags: 1073741825
  - first: {x: 0, y: 1, z: 0}
    second:
      serializedVersion: 2
      m_TileIndex: 2
      m_TileSpriteIndex: 3
      m_TileMatrixIndex: 0
      m_TileColorIndex: 0
      m_TileObjectToInstantiateIndex: 65535
      dummyAlignment: 0
      m_AllTileFlags: 1073741825
  - first: {x: 1, y: 1, z: 0}
    second:
      serializedVersion: 2
      m_TileIndex: 3
      m_TileSpriteIndex: 4
      m_TileMatrixIndex: 0
      m_TileColorIndex: 0
      m_TileObjectToInstantiateIndex: 65535
      dummyAlignment: 0
      m_AllTileFlags: 1073741825
  - first: {x: 2, y: 1, z: 0}
    second:
      serializedVersion: 2
      m_TileIndex: 4
      m_TileSpriteIndex: 10
      m_TileMatrixIndex: 0
      m_TileColorIndex: 0
      m_TileObjectToInstantiateIndex: 65535
      dummyAlignment: 0
      m_AllTileFlags: 1073741825
  - first: {x: 3, y: 1, z: 0}
    second:
      serializedVersion: 2
      m_TileIndex: 25
      m_TileSpriteIndex: 6
      m_TileMatrixIndex: 0
      m_TileColorIndex: 0
      m_TileObjectToInstantiateIndex: 65535
      dummyAlignment: 0
      m_AllTileFlags: 1073741825
  - first: {x: 4, y: 1, z: 0}
    second:
      serializedVersion: 2
      m_TileIndex: 26
      m_TileSpriteIndex: 7
      m_TileMatrixIndex: 0
      m_TileColorIndex: 0
      m_TileObjectToInstantiateIndex: 65535
      dummyAlignment: 0
      m_AllTileFlags: 1073741825
  - first: {x: 5, y: 1, z: 0}
    second:
      serializedVersion: 2
      m_TileIndex: 27
      m_TileSpriteIndex: 8
      m_TileMatrixIndex: 0
      m_TileColorIndex: 0
      m_TileObjectToInstantiateIndex: 65535
      dummyAlignment: 0
      m_AllTileFlags: 1073741825
  - first: {x: 6, y: 1, z: 0}
    second:
      serializedVersion: 2
      m_TileIndex: 28
      m_TileSpriteIndex: 9
      m_TileMatrixIndex: 0
      m_TileColorIndex: 0
      m_TileObjectToInstantiateIndex: 65535
      dummyAlignment: 0
      m_AllTileFlags: 1073741825
  - first: {x: 7, y: 1, z: 0}
    second:
      serializedVersion: 2
      m_TileIndex: 29
      m_TileSpriteIndex: 15
      m_TileMatrixIndex: 0
      m_TileColorIndex: 0
      m_TileObjectToInstantiateIndex: 65535
      dummyAlignment: 0
      m_AllTileFlags: 1073741825
  - first: {x: 8, y: 1, z: 0}
    second:
      serializedVersion: 2
      m_TileIndex: 30
      m_TileSpriteIndex: 11
      m_TileMatrixIndex: 0
      m_TileColorIndex: 0
      m_TileObjectToInstantiateIndex: 65535
      dummyAlignment: 0
      m_AllTileFlags: 1073741825
  m_AnimatedTiles: {}
  m_TileAssetArray:
  - m_RefCount: 1
    m_Data: {fileID: 11400000, guid: bb463bf79672c1d48bbb888c5fb29a91, type: 2}
  - m_RefCount: 1
    m_Data: {fileID: 11400000, guid: 050aed21cdafa0a4ab8784d9c361a782, type: 2}
  - m_RefCount: 1
    m_Data: {fileID: 11400000, guid: 08795a4aee1e0484d8086194705948af, type: 2}
  - m_RefCount: 1
    m_Data: {fileID: 11400000, guid: 996df49eae339a042b886c7756b9846b, type: 2}
  - m_RefCount: 1
    m_Data: {fileID: 11400000, guid: 619e3c96fed3de440a82ec7c14c5713f, type: 2}
  - m_RefCount: 1
    m_Data: {fileID: 11400000, guid: d3671b4ac96311b429350dbb07d98db7, type: 2}
  - m_RefCount: 1
    m_Data: {fileID: 11400000, guid: 930209c1c0cd5fc4abab930ae7f54d3c, type: 2}
  - m_RefCount: 1
    m_Data: {fileID: 11400000, guid: 101dc0fa38494d049a849abacf318966, type: 2}
  - m_RefCount: 1
    m_Data: {fileID: 11400000, guid: 8384b4b48f4437840a487ea14bf75818, type: 2}
  - m_RefCount: 1
    m_Data: {fileID: 11400000, guid: 72c6820aee726ae4abcacfb8e1fd61aa, type: 2}
  - m_RefCount: 1
    m_Data: {fileID: 11400000, guid: 845bc2a43b48be548a8af1079c4a3e2f, type: 2}
  - m_RefCount: 1
    m_Data: {fileID: 11400000, guid: 34f155307c6ab9846a4efd5d72a13f70, type: 2}
  - m_RefCount: 1
    m_Data: {fileID: 11400000, guid: 0366aad72a12b884db5c77e5184d5c77, type: 2}
  - m_RefCount: 1
    m_Data: {fileID: 11400000, guid: fe107afca8e2eed4698d455c4f5fe1d3, type: 2}
  - m_RefCount: 1
    m_Data: {fileID: 11400000, guid: 6077002e21fbb7146b4c767d539eb70e, type: 2}
  - m_RefCount: 1
    m_Data: {fileID: 11400000, guid: 22d42530e1d47dd459245f058b07645c, type: 2}
  - m_RefCount: 1
    m_Data: {fileID: 11400000, guid: c78151806db310e4ea090097c3265b39, type: 2}
  - m_RefCount: 1
    m_Data: {fileID: 11400000, guid: a589e1c5384a5814da78c6ccb64439c3, type: 2}
  - m_RefCount: 1
    m_Data: {fileID: 11400000, guid: 12c779ad1c6258045ad62f540153bb7f, type: 2}
  - m_RefCount: 1
    m_Data: {fileID: 11400000, guid: ee7f860342a19b847afa3a1948c1f136, type: 2}
  - m_RefCount: 1
    m_Data: {fileID: 11400000, guid: 49dc68208607efe4694e1d5b19546b5d, type: 2}
  - m_RefCount: 1
    m_Data: {fileID: 11400000, guid: 977ec10e21950fc43a5575b1233b25a0, type: 2}
  - m_RefCount: 1
    m_Data: {fileID: 11400000, guid: 478fc101233a69049974fdf2a0722805, type: 2}
  - m_RefCount: 1
    m_Data: {fileID: 11400000, guid: 7c6f36bfe3c39ad44ba0979ec8fedb41, type: 2}
  - m_RefCount: 1
    m_Data: {fileID: 11400000, guid: 53ce75b6995eb074881ec546f0fe2ea4, type: 2}
  - m_RefCount: 1
    m_Data: {fileID: 11400000, guid: 6b3bb9a009c4c074ba6bb4874659a3e0, type: 2}
  - m_RefCount: 1
    m_Data: {fileID: 11400000, guid: fb017dfcc448f494d89c71d125480b31, type: 2}
  - m_RefCount: 1
    m_Data: {fileID: 11400000, guid: aad61d77c44f9074285ac8581c826945, type: 2}
  - m_RefCount: 1
    m_Data: {fileID: 11400000, guid: eb4d42a45d5957743a94cfe0c90e3a75, type: 2}
  - m_RefCount: 1
    m_Data: {fileID: 11400000, guid: 9eacbcb4264418647af35eb35724f834, type: 2}
  - m_RefCount: 1
    m_Data: {fileID: 11400000, guid: 10d9352c07d51fe4fb83db3e9426db70, type: 2}
  - m_RefCount: 1
    m_Data: {fileID: 11400000, guid: 14a4af4ddc271b14b8eb6744a3d7406d, type: 2}
  - m_RefCount: 1
    m_Data: {fileID: 11400000, guid: 2d986d267384c174db5ea280427cd00e, type: 2}
  - m_RefCount: 1
    m_Data: {fileID: 11400000, guid: 3d68bc02a0da55b43a99cbe2c3fb95ba, type: 2}
  - m_RefCount: 1
    m_Data: {fileID: 11400000, guid: b39030e9e07a85b49a64b8edc48b5818, type: 2}
  - m_RefCount: 1
    m_Data: {fileID: 11400000, guid: 2e4a0d48a364d3a488af52657f51d6eb, type: 2}
  - m_RefCount: 1
    m_Data: {fileID: 11400000, guid: 34a5460592246a6448c440e114919cb6, type: 2}
  - m_RefCount: 1
    m_Data: {fileID: 11400000, guid: f9e15672c2040464098eb8377665b0af, type: 2}
  - m_RefCount: 1
    m_Data: {fileID: 11400000, guid: 47b8faed17833354abda4014e3bb36fe, type: 2}
  - m_RefCount: 1
    m_Data: {fileID: 11400000, guid: 8676f192cd06336499e3bb913a6e1312, type: 2}
  - m_RefCount: 1
    m_Data: {fileID: 11400000, guid: 1a242aac0bc92ef489ef9bf10761b9e3, type: 2}
  - m_RefCount: 1
    m_Data: {fileID: 11400000, guid: 8295e52ef5f5c3549849ce0ee798021a, type: 2}
  - m_RefCount: 1
    m_Data: {fileID: 11400000, guid: 3fd66813b5cc6b14fbdcca08e50a0ba4, type: 2}
  - m_RefCount: 1
    m_Data: {fileID: 11400000, guid: 12c0bd90447bf564e9f18e438d34facf, type: 2}
  - m_RefCount: 1
    m_Data: {fileID: 11400000, guid: 35e8823d16b1c2945a1306e76f63ceec, type: 2}
  - m_RefCount: 1
    m_Data: {fileID: 11400000, guid: 0b0aafd6f70354447b512cf91fccfc80, type: 2}
  - m_RefCount: 1
    m_Data: {fileID: 11400000, guid: e6298bd30711fba4d9e7fb0481d94a68, type: 2}
  - m_RefCount: 1
    m_Data: {fileID: 11400000, guid: ca3dd35b649294f42b97b363759f3ee9, type: 2}
  - m_RefCount: 1
    m_Data: {fileID: 11400000, guid: 3a226f0895e9e154e82be7d4e73d5876, type: 2}
  - m_RefCount: 1
    m_Data: {fileID: 11400000, guid: 86030cb789d14fe4fab54f6cb6910195, type: 2}
  - m_RefCount: 1
    m_Data: {fileID: 11400000, guid: 838d6469cdc1fd54482de07e9cbfaf58, type: 2}
  - m_RefCount: 1
    m_Data: {fileID: 11400000, guid: 5e686af3d6dc70642861f7b32510e1bd, type: 2}
  - m_RefCount: 1
    m_Data: {fileID: 11400000, guid: 9214a5bd09cf248479fbd723b110923b, type: 2}
  - m_RefCount: 1
    m_Data: {fileID: 11400000, guid: 78abe098627d2cc4880ad117057c9ddc, type: 2}
  - m_RefCount: 1
    m_Data: {fileID: 11400000, guid: 259070670aba77946ad3eb651d36b0d9, type: 2}
  - m_RefCount: 1
    m_Data: {fileID: 11400000, guid: 3ad4483853a574d49ad7966c84fc7be3, type: 2}
  - m_RefCount: 1
    m_Data: {fileID: 11400000, guid: 58937b12d6b6a3046a45ea20958d766c, type: 2}
  - m_RefCount: 1
    m_Data: {fileID: 11400000, guid: e3605cfbed34d9844b560fa7012bd90e, type: 2}
  - m_RefCount: 1
    m_Data: {fileID: 11400000, guid: 259263ae2fa13a946b2a123b21d84321, type: 2}
  - m_RefCount: 1
    m_Data: {fileID: 11400000, guid: 8ef66ee535b0fda4f85f236b7967cee2, type: 2}
  - m_RefCount: 1
    m_Data: {fileID: 11400000, guid: 3b34884256e41cc49978cbfa1ac0fd20, type: 2}
  - m_RefCount: 1
    m_Data: {fileID: 11400000, guid: db504d98f810c134f9288baa51934616, type: 2}
  - m_RefCount: 1
    m_Data: {fileID: 11400000, guid: 89de2c189be66884d87f8134a58cb430, type: 2}
  - m_RefCount: 1
    m_Data: {fileID: 11400000, guid: 6daf7ac6541441745a32c8ea69ff8f99, type: 2}
  - m_RefCount: 1
    m_Data: {fileID: 11400000, guid: 385551bffb9061842b28a87bd2c607b6, type: 2}
  - m_RefCount: 1
    m_Data: {fileID: 11400000, guid: cd8af8e5518ce554ebfefa73f2cd2da3, type: 2}
  - m_RefCount: 1
    m_Data: {fileID: 11400000, guid: b8b14715e3de781488ea2820e0276102, type: 2}
  - m_RefCount: 1
    m_Data: {fileID: 11400000, guid: 78cceb521914cfe42b8bc5decf643940, type: 2}
  - m_RefCount: 1
    m_Data: {fileID: 11400000, guid: f0f73b03adf184e4889c09bd11dca4ce, type: 2}
  - m_RefCount: 1
    m_Data: {fileID: 11400000, guid: 90cec1ea00094c545a6a7f4cba91a358, type: 2}
  - m_RefCount: 1
    m_Data: {fileID: 11400000, guid: 27ddc843b2cf5534588bea8ac25a7911, type: 2}
  - m_RefCount: 1
    m_Data: {fileID: 11400000, guid: 74872a88631f72e42a5668aa0d8e79a5, type: 2}
  - m_RefCount: 1
    m_Data: {fileID: 11400000, guid: 0fa00f8fa84226348a6a6783c18c6502, type: 2}
  - m_RefCount: 1
    m_Data: {fileID: 11400000, guid: d55eba7423dea1945bc8a51a290174ce, type: 2}
  - m_RefCount: 1
    m_Data: {fileID: 11400000, guid: 0d3dfbf43d9359047a99c7338d244380, type: 2}
  - m_RefCount: 1
    m_Data: {fileID: 11400000, guid: 8cc2fe3464a060144a7ae274ef94f9a9, type: 2}
  - m_RefCount: 1
    m_Data: {fileID: 11400000, guid: 055229631ac509040bfc0e9fe1a76103, type: 2}
  - m_RefCount: 1
    m_Data: {fileID: 11400000, guid: a3832d3fe6893a44b9124a2dd5626620, type: 2}
  - m_RefCount: 1
    m_Data: {fileID: 11400000, guid: 03c925bd01426db40b8df2d949d14e46, type: 2}
  - m_RefCount: 1
    m_Data: {fileID: 11400000, guid: b79f7379b42941f4abe24c8cc73e1b1c, type: 2}
  - m_RefCount: 1
    m_Data: {fileID: 11400000, guid: 409de2976e8cfdd48b2bf02090275adb, type: 2}
  - m_RefCount: 1
    m_Data: {fileID: 11400000, guid: c0576ffd680277e4c873eae7b270e8a3, type: 2}
  - m_RefCount: 1
    m_Data: {fileID: 11400000, guid: 9c4c67d7a5c43e146b67a0c7bd798982, type: 2}
  - m_RefCount: 1
    m_Data: {fileID: 11400000, guid: 57d0d3b386735dd4d9f955417264a31a, type: 2}
  - m_RefCount: 1
    m_Data: {fileID: 11400000, guid: 3c56c326a5384104ca371fa18be0c584, type: 2}
  - m_RefCount: 1
    m_Data: {fileID: 11400000, guid: d9fdf16d50d55544d87f5de88400c938, type: 2}
  - m_RefCount: 1
    m_Data: {fileID: 11400000, guid: 2451de8f2685037498653fb7223ec81d, type: 2}
  - m_RefCount: 1
    m_Data: {fileID: 11400000, guid: 7c5a8f856477fea40891fbdae4e63672, type: 2}
  - m_RefCount: 1
    m_Data: {fileID: 11400000, guid: 7f1c5cb994b90884e94a262910e8417d, type: 2}
  - m_RefCount: 1
    m_Data: {fileID: 11400000, guid: be8009c9f94e2194b8241674477d6f5a, type: 2}
  - m_RefCount: 1
    m_Data: {fileID: 11400000, guid: c12659a78ee498f4e95e44610a407f3d, type: 2}
  - m_RefCount: 1
    m_Data: {fileID: 11400000, guid: dc460949023049445927a7d5118d71ac, type: 2}
  - m_RefCount: 1
    m_Data: {fileID: 11400000, guid: d475c772e5fa5e84ab53497aab55b18f, type: 2}
  - m_RefCount: 1
    m_Data: {fileID: 11400000, guid: 7819e7eeae2be3741a055d94930d2261, type: 2}
  - m_RefCount: 1
    m_Data: {fileID: 11400000, guid: 50040704d6623624aa2399661cd9433e, type: 2}
  - m_RefCount: 1
    m_Data: {fileID: 11400000, guid: 7d3f58f13499a0d4895040b8c8312e0a, type: 2}
  - m_RefCount: 1
    m_Data: {fileID: 11400000, guid: aa9b2539c3770c248bc8cfccf1abb562, type: 2}
  - m_RefCount: 1
    m_Data: {fileID: 11400000, guid: b26fdfc975ca6dc4f85a8142037644bb, type: 2}
  - m_RefCount: 1
    m_Data: {fileID: 11400000, guid: 2f67b394ac660df47b1fee8433548ac5, type: 2}
  - m_RefCount: 1
    m_Data: {fileID: 11400000, guid: 0d1080f289b5f1544b1b5967beebd084, type: 2}
  - m_RefCount: 1
    m_Data: {fileID: 11400000, guid: fa669d0c4cbed7f4f9962abf601a512a, type: 2}
  - m_RefCount: 1
    m_Data: {fileID: 11400000, guid: f810296bf56d7b143b112424616312df, type: 2}
  - m_RefCount: 1
    m_Data: {fileID: 11400000, guid: f198a402bdd59f1418b37b817a101471, type: 2}
  - m_RefCount: 1
    m_Data: {fileID: 11400000, guid: 96e4ea4ff221d62459983c4e12cf1666, type: 2}
  - m_RefCount: 1
    m_Data: {fileID: 11400000, guid: 4d24cb7481dd2d04a852b6781027ee58, type: 2}
  - m_RefCount: 1
    m_Data: {fileID: 11400000, guid: 6c2e2868d85aceb4f840c39ca4403443, type: 2}
  - m_RefCount: 1
    m_Data: {fileID: 11400000, guid: 217f2be562183fe4fa73122d1382f241, type: 2}
  - m_RefCount: 1
    m_Data: {fileID: 11400000, guid: cf3baabfc69906041b128ddebe682fdc, type: 2}
  - m_RefCount: 1
    m_Data: {fileID: 11400000, guid: 2aa3a4ea56d2f7743a39e98514865827, type: 2}
  - m_RefCount: 1
    m_Data: {fileID: 11400000, guid: 7447e8fed1ae10e418992623124061c2, type: 2}
  - m_RefCount: 1
    m_Data: {fileID: 11400000, guid: 87aef5b119119c145be2995b8a5888fa, type: 2}
  - m_RefCount: 1
    m_Data: {fileID: 11400000, guid: e1ec94f6dafc1084799cf64108c060e7, type: 2}
  - m_RefCount: 1
    m_Data: {fileID: 11400000, guid: 4dffc0356ed4a18409c5615f06b94ea4, type: 2}
  - m_RefCount: 1
    m_Data: {fileID: 11400000, guid: f19d20c73007f864fa1dd366d53bee94, type: 2}
  - m_RefCount: 1
    m_Data: {fileID: 11400000, guid: 38b486fd53c826140809851beaf60825, type: 2}
  - m_RefCount: 1
    m_Data: {fileID: 11400000, guid: 4c5abbe1a2d37eb4a8bb94faabfc9fd7, type: 2}
  - m_RefCount: 1
    m_Data: {fileID: 11400000, guid: e675893d59d0ec34d984f96f01556b92, type: 2}
  - m_RefCount: 1
    m_Data: {fileID: 11400000, guid: 145dca1514b6b6f4ca9dc0ebc73abdc8, type: 2}
  - m_RefCount: 1
    m_Data: {fileID: 11400000, guid: 4d64c048a2f7dcd44b27083e05becfb1, type: 2}
  - m_RefCount: 1
    m_Data: {fileID: 11400000, guid: 0aa29bb5eb733164aa8ed3c2f2486472, type: 2}
  - m_RefCount: 1
    m_Data: {fileID: 11400000, guid: bd92f9af899abb1469a6574252b6344e, type: 2}
  - m_RefCount: 1
    m_Data: {fileID: 11400000, guid: 3aec03afdce7f194ca73fe4c52cf4985, type: 2}
  - m_RefCount: 1
    m_Data: {fileID: 11400000, guid: ec24e867b7f05814baf07101940c7563, type: 2}
  - m_RefCount: 1
    m_Data: {fileID: 11400000, guid: ec55353461edc9940a196bc015e0cf54, type: 2}
  - m_RefCount: 1
    m_Data: {fileID: 11400000, guid: 004f928196160444a848a28d58d3d167, type: 2}
  - m_RefCount: 1
    m_Data: {fileID: 11400000, guid: 3fabef6360c311743bdaf89b10d2a745, type: 2}
  - m_RefCount: 1
    m_Data: {fileID: 11400000, guid: f1807174e94590247bd14004090eb2be, type: 2}
  - m_RefCount: 1
    m_Data: {fileID: 11400000, guid: 2a4e9f1e051264b458647b04b529f86c, type: 2}
  - m_RefCount: 1
    m_Data: {fileID: 11400000, guid: 48a2628832013574eaa463f5bc49fd38, type: 2}
  - m_RefCount: 1
    m_Data: {fileID: 11400000, guid: b7f00abb104693f459694675742ea528, type: 2}
  - m_RefCount: 1
    m_Data: {fileID: 11400000, guid: 47cd57bee65fefc47aea0696f105a1ce, type: 2}
  - m_RefCount: 1
    m_Data: {fileID: 11400000, guid: 29a1ad8b04c7c1443b701f2bd3d87f11, type: 2}
  - m_RefCount: 1
    m_Data: {fileID: 11400000, guid: 0b61928a8ab41e74e8e7cc68f88e6406, type: 2}
  - m_RefCount: 1
    m_Data: {fileID: 11400000, guid: cd8856fa923d51940b18c3fe3c92d05d, type: 2}
  - m_RefCount: 1
    m_Data: {fileID: 11400000, guid: 55276a7b7b93f9940942f9d43ca7bb46, type: 2}
  - m_RefCount: 1
    m_Data: {fileID: 11400000, guid: 5307e752e9f20fc46a2a8077e4c91654, type: 2}
  - m_RefCount: 1
    m_Data: {fileID: 11400000, guid: d4faa7502094f7e48bd23d051e52d0c4, type: 2}
  - m_RefCount: 1
    m_Data: {fileID: 11400000, guid: f287cb97686a5714bb26cd182854616f, type: 2}
  - m_RefCount: 1
    m_Data: {fileID: 11400000, guid: e8e32c067d39d174d987c369e445dfaf, type: 2}
  - m_RefCount: 1
    m_Data: {fileID: 11400000, guid: 4ec71a47bc5688240b0d3ba43a771b68, type: 2}
  - m_RefCount: 1
    m_Data: {fileID: 11400000, guid: 4d2aa16ed58e01b4db05712b3ee9a68b, type: 2}
  - m_RefCount: 1
    m_Data: {fileID: 11400000, guid: 427b48d7750bc694fbdf4ec47a50895a, type: 2}
  - m_RefCount: 1
    m_Data: {fileID: 11400000, guid: ac5b1e8e7c34619449fe31695037aa25, type: 2}
  - m_RefCount: 1
    m_Data: {fileID: 11400000, guid: ad53cc474e085154991a4ca9829ca7d1, type: 2}
  m_TileSpriteArray:
  - m_RefCount: 1
    m_Data: {fileID: -340453872, guid: 3019b28f60fca2b488096e492944f1c9, type: 3}
  - m_RefCount: 1
    m_Data: {fileID: 70981602, guid: 3019b28f60fca2b488096e492944f1c9, type: 3}
  - m_RefCount: 1
    m_Data: {fileID: -416705040, guid: 3019b28f60fca2b488096e492944f1c9, type: 3}
  - m_RefCount: 1
    m_Data: {fileID: 740585578, guid: 3019b28f60fca2b488096e492944f1c9, type: 3}
  - m_RefCount: 1
    m_Data: {fileID: -293806989, guid: 3019b28f60fca2b488096e492944f1c9, type: 3}
  - m_RefCount: 1
    m_Data: {fileID: -492212272, guid: 3019b28f60fca2b488096e492944f1c9, type: 3}
  - m_RefCount: 1
    m_Data: {fileID: -905933145, guid: 3019b28f60fca2b488096e492944f1c9, type: 3}
  - m_RefCount: 1
    m_Data: {fileID: -1365120071, guid: 3019b28f60fca2b488096e492944f1c9, type: 3}
  - m_RefCount: 1
    m_Data: {fileID: -1213012987, guid: 3019b28f60fca2b488096e492944f1c9, type: 3}
  - m_RefCount: 1
    m_Data: {fileID: 1443586050, guid: 3019b28f60fca2b488096e492944f1c9, type: 3}
  - m_RefCount: 1
    m_Data: {fileID: -1660923080, guid: 3019b28f60fca2b488096e492944f1c9, type: 3}
  - m_RefCount: 1
    m_Data: {fileID: 361738790, guid: 3019b28f60fca2b488096e492944f1c9, type: 3}
  - m_RefCount: 1
    m_Data: {fileID: -1902855623, guid: 3019b28f60fca2b488096e492944f1c9, type: 3}
  - m_RefCount: 1
    m_Data: {fileID: 1847160859, guid: 3019b28f60fca2b488096e492944f1c9, type: 3}
  - m_RefCount: 1
    m_Data: {fileID: 911153088, guid: 3019b28f60fca2b488096e492944f1c9, type: 3}
  - m_RefCount: 1
    m_Data: {fileID: 433239829, guid: 3019b28f60fca2b488096e492944f1c9, type: 3}
  - m_RefCount: 1
    m_Data: {fileID: 501365694, guid: 3019b28f60fca2b488096e492944f1c9, type: 3}
  - m_RefCount: 1
    m_Data: {fileID: 1171182756, guid: 3019b28f60fca2b488096e492944f1c9, type: 3}
  - m_RefCount: 1
    m_Data: {fileID: -1614255264, guid: 3019b28f60fca2b488096e492944f1c9, type: 3}
  - m_RefCount: 1
    m_Data: {fileID: 702662406, guid: 3019b28f60fca2b488096e492944f1c9, type: 3}
  - m_RefCount: 1
    m_Data: {fileID: -145790431, guid: 3019b28f60fca2b488096e492944f1c9, type: 3}
  - m_RefCount: 1
    m_Data: {fileID: 1612190692, guid: 3019b28f60fca2b488096e492944f1c9, type: 3}
  - m_RefCount: 1
    m_Data: {fileID: -18566465, guid: 3019b28f60fca2b488096e492944f1c9, type: 3}
  - m_RefCount: 1
    m_Data: {fileID: -208641629, guid: 3019b28f60fca2b488096e492944f1c9, type: 3}
  - m_RefCount: 1
    m_Data: {fileID: 703596865, guid: 3019b28f60fca2b488096e492944f1c9, type: 3}
  - m_RefCount: 1
    m_Data: {fileID: -263754319, guid: 3019b28f60fca2b488096e492944f1c9, type: 3}
  - m_RefCount: 1
    m_Data: {fileID: -711164673, guid: 3019b28f60fca2b488096e492944f1c9, type: 3}
  - m_RefCount: 1
    m_Data: {fileID: 2016521886, guid: 3019b28f60fca2b488096e492944f1c9, type: 3}
  - m_RefCount: 1
    m_Data: {fileID: -1636956532, guid: 3019b28f60fca2b488096e492944f1c9, type: 3}
  - m_RefCount: 1
    m_Data: {fileID: -659030135, guid: 3019b28f60fca2b488096e492944f1c9, type: 3}
  - m_RefCount: 1
    m_Data: {fileID: -925955101, guid: 3019b28f60fca2b488096e492944f1c9, type: 3}
  - m_RefCount: 1
    m_Data: {fileID: -1129447829, guid: 3019b28f60fca2b488096e492944f1c9, type: 3}
  - m_RefCount: 1
    m_Data: {fileID: 2102546606, guid: 3019b28f60fca2b488096e492944f1c9, type: 3}
  - m_RefCount: 1
    m_Data: {fileID: 492778777, guid: 3019b28f60fca2b488096e492944f1c9, type: 3}
  - m_RefCount: 1
    m_Data: {fileID: -224899439, guid: 3019b28f60fca2b488096e492944f1c9, type: 3}
  - m_RefCount: 1
    m_Data: {fileID: 1016303635, guid: 3019b28f60fca2b488096e492944f1c9, type: 3}
  - m_RefCount: 1
    m_Data: {fileID: -767188220, guid: 3019b28f60fca2b488096e492944f1c9, type: 3}
  - m_RefCount: 1
    m_Data: {fileID: -1602101743, guid: 3019b28f60fca2b488096e492944f1c9, type: 3}
  - m_RefCount: 1
    m_Data: {fileID: 599203996, guid: 3019b28f60fca2b488096e492944f1c9, type: 3}
  - m_RefCount: 1
    m_Data: {fileID: -1802760894, guid: 3019b28f60fca2b488096e492944f1c9, type: 3}
  - m_RefCount: 1
    m_Data: {fileID: -995093575, guid: 3019b28f60fca2b488096e492944f1c9, type: 3}
  - m_RefCount: 1
    m_Data: {fileID: -1558952173, guid: 3019b28f60fca2b488096e492944f1c9, type: 3}
  - m_RefCount: 1
    m_Data: {fileID: 1240362303, guid: 3019b28f60fca2b488096e492944f1c9, type: 3}
  - m_RefCount: 1
    m_Data: {fileID: 1384907713, guid: 3019b28f60fca2b488096e492944f1c9, type: 3}
  - m_RefCount: 1
    m_Data: {fileID: -1210053610, guid: 3019b28f60fca2b488096e492944f1c9, type: 3}
  - m_RefCount: 1
    m_Data: {fileID: -1417923469, guid: 3019b28f60fca2b488096e492944f1c9, type: 3}
  - m_RefCount: 1
    m_Data: {fileID: 940428248, guid: 3019b28f60fca2b488096e492944f1c9, type: 3}
  - m_RefCount: 1
    m_Data: {fileID: 637255074, guid: 3019b28f60fca2b488096e492944f1c9, type: 3}
  - m_RefCount: 1
    m_Data: {fileID: -367094283, guid: 3019b28f60fca2b488096e492944f1c9, type: 3}
  - m_RefCount: 1
    m_Data: {fileID: 111261452, guid: 3019b28f60fca2b488096e492944f1c9, type: 3}
  - m_RefCount: 1
    m_Data: {fileID: 927116770, guid: 3019b28f60fca2b488096e492944f1c9, type: 3}
  - m_RefCount: 1
    m_Data: {fileID: -1329646821, guid: 3019b28f60fca2b488096e492944f1c9, type: 3}
  - m_RefCount: 1
    m_Data: {fileID: 1237594945, guid: 3019b28f60fca2b488096e492944f1c9, type: 3}
  - m_RefCount: 1
    m_Data: {fileID: -1868277683, guid: 3019b28f60fca2b488096e492944f1c9, type: 3}
  - m_RefCount: 1
    m_Data: {fileID: -205124592, guid: 3019b28f60fca2b488096e492944f1c9, type: 3}
  - m_RefCount: 1
    m_Data: {fileID: 1322424306, guid: 3019b28f60fca2b488096e492944f1c9, type: 3}
  - m_RefCount: 1
    m_Data: {fileID: -656954721, guid: 3019b28f60fca2b488096e492944f1c9, type: 3}
  - m_RefCount: 1
    m_Data: {fileID: 719479486, guid: 3019b28f60fca2b488096e492944f1c9, type: 3}
  - m_RefCount: 1
    m_Data: {fileID: -880643921, guid: 3019b28f60fca2b488096e492944f1c9, type: 3}
  - m_RefCount: 1
    m_Data: {fileID: 1398333446, guid: 3019b28f60fca2b488096e492944f1c9, type: 3}
  - m_RefCount: 1
    m_Data: {fileID: -244224261, guid: 3019b28f60fca2b488096e492944f1c9, type: 3}
  - m_RefCount: 1
    m_Data: {fileID: 687485991, guid: 3019b28f60fca2b488096e492944f1c9, type: 3}
  - m_RefCount: 1
    m_Data: {fileID: 584696768, guid: 3019b28f60fca2b488096e492944f1c9, type: 3}
  - m_RefCount: 1
    m_Data: {fileID: 1999033353, guid: 3019b28f60fca2b488096e492944f1c9, type: 3}
  - m_RefCount: 1
    m_Data: {fileID: 1457776302, guid: 3019b28f60fca2b488096e492944f1c9, type: 3}
  - m_RefCount: 1
    m_Data: {fileID: -1460988228, guid: 3019b28f60fca2b488096e492944f1c9, type: 3}
  - m_RefCount: 1
    m_Data: {fileID: -446577777, guid: 3019b28f60fca2b488096e492944f1c9, type: 3}
  - m_RefCount: 1
    m_Data: {fileID: 1957770471, guid: 3019b28f60fca2b488096e492944f1c9, type: 3}
  - m_RefCount: 1
    m_Data: {fileID: 713042961, guid: 3019b28f60fca2b488096e492944f1c9, type: 3}
  - m_RefCount: 1
    m_Data: {fileID: 850826679, guid: 3019b28f60fca2b488096e492944f1c9, type: 3}
  - m_RefCount: 1
    m_Data: {fileID: 651184875, guid: 3019b28f60fca2b488096e492944f1c9, type: 3}
  - m_RefCount: 1
    m_Data: {fileID: -1254393651, guid: 3019b28f60fca2b488096e492944f1c9, type: 3}
  - m_RefCount: 1
    m_Data: {fileID: -518707968, guid: 3019b28f60fca2b488096e492944f1c9, type: 3}
  - m_RefCount: 1
    m_Data: {fileID: -2053702392, guid: 3019b28f60fca2b488096e492944f1c9, type: 3}
  - m_RefCount: 1
    m_Data: {fileID: 1563391654, guid: 3019b28f60fca2b488096e492944f1c9, type: 3}
  - m_RefCount: 1
    m_Data: {fileID: 222003452, guid: 3019b28f60fca2b488096e492944f1c9, type: 3}
  - m_RefCount: 1
    m_Data: {fileID: 1456715264, guid: 3019b28f60fca2b488096e492944f1c9, type: 3}
  - m_RefCount: 1
    m_Data: {fileID: -1780636110, guid: 3019b28f60fca2b488096e492944f1c9, type: 3}
  - m_RefCount: 1
    m_Data: {fileID: 801882690, guid: 3019b28f60fca2b488096e492944f1c9, type: 3}
  - m_RefCount: 1
    m_Data: {fileID: 1546403654, guid: 3019b28f60fca2b488096e492944f1c9, type: 3}
  - m_RefCount: 1
    m_Data: {fileID: 272846001, guid: 3019b28f60fca2b488096e492944f1c9, type: 3}
  - m_RefCount: 1
    m_Data: {fileID: 2129146165, guid: 3019b28f60fca2b488096e492944f1c9, type: 3}
  - m_RefCount: 1
    m_Data: {fileID: 362073592, guid: 3019b28f60fca2b488096e492944f1c9, type: 3}
  - m_RefCount: 1
    m_Data: {fileID: 2142071646, guid: 3019b28f60fca2b488096e492944f1c9, type: 3}
  - m_RefCount: 1
    m_Data: {fileID: -368641807, guid: 3019b28f60fca2b488096e492944f1c9, type: 3}
  - m_RefCount: 1
    m_Data: {fileID: 102172289, guid: 3019b28f60fca2b488096e492944f1c9, type: 3}
  - m_RefCount: 1
    m_Data: {fileID: -1411834867, guid: 3019b28f60fca2b488096e492944f1c9, type: 3}
  - m_RefCount: 1
    m_Data: {fileID: 1449830766, guid: 3019b28f60fca2b488096e492944f1c9, type: 3}
  - m_RefCount: 1
    m_Data: {fileID: 1212823811, guid: 3019b28f60fca2b488096e492944f1c9, type: 3}
  - m_RefCount: 1
    m_Data: {fileID: 962851584, guid: 3019b28f60fca2b488096e492944f1c9, type: 3}
  - m_RefCount: 1
    m_Data: {fileID: -1775680532, guid: 3019b28f60fca2b488096e492944f1c9, type: 3}
  - m_RefCount: 1
    m_Data: {fileID: -981320018, guid: 3019b28f60fca2b488096e492944f1c9, type: 3}
  - m_RefCount: 1
    m_Data: {fileID: 1289178901, guid: 3019b28f60fca2b488096e492944f1c9, type: 3}
  - m_RefCount: 1
    m_Data: {fileID: -1138997697, guid: 3019b28f60fca2b488096e492944f1c9, type: 3}
  - m_RefCount: 1
    m_Data: {fileID: -1883454304, guid: 3019b28f60fca2b488096e492944f1c9, type: 3}
  - m_RefCount: 1
    m_Data: {fileID: -365677704, guid: 3019b28f60fca2b488096e492944f1c9, type: 3}
  - m_RefCount: 1
    m_Data: {fileID: -2116466978, guid: 3019b28f60fca2b488096e492944f1c9, type: 3}
  - m_RefCount: 1
    m_Data: {fileID: -787582947, guid: 3019b28f60fca2b488096e492944f1c9, type: 3}
  - m_RefCount: 1
    m_Data: {fileID: -498298736, guid: 3019b28f60fca2b488096e492944f1c9, type: 3}
  - m_RefCount: 1
    m_Data: {fileID: -1274321828, guid: 3019b28f60fca2b488096e492944f1c9, type: 3}
  - m_RefCount: 1
    m_Data: {fileID: -1221009266, guid: 3019b28f60fca2b488096e492944f1c9, type: 3}
  - m_RefCount: 1
    m_Data: {fileID: -908674491, guid: 3019b28f60fca2b488096e492944f1c9, type: 3}
  - m_RefCount: 1
    m_Data: {fileID: -333012225, guid: 3019b28f60fca2b488096e492944f1c9, type: 3}
  - m_RefCount: 1
    m_Data: {fileID: -2044076356, guid: 3019b28f60fca2b488096e492944f1c9, type: 3}
  - m_RefCount: 1
    m_Data: {fileID: 1597407436, guid: 3019b28f60fca2b488096e492944f1c9, type: 3}
  - m_RefCount: 1
    m_Data: {fileID: -1242850400, guid: 3019b28f60fca2b488096e492944f1c9, type: 3}
  - m_RefCount: 1
    m_Data: {fileID: -1672159682, guid: 3019b28f60fca2b488096e492944f1c9, type: 3}
  - m_RefCount: 1
    m_Data: {fileID: -1856312471, guid: 3019b28f60fca2b488096e492944f1c9, type: 3}
  - m_RefCount: 1
    m_Data: {fileID: -1892653186, guid: 3019b28f60fca2b488096e492944f1c9, type: 3}
  - m_RefCount: 1
    m_Data: {fileID: 1207913911, guid: 3019b28f60fca2b488096e492944f1c9, type: 3}
  - m_RefCount: 1
    m_Data: {fileID: 895726392, guid: 3019b28f60fca2b488096e492944f1c9, type: 3}
  - m_RefCount: 1
    m_Data: {fileID: 16847698, guid: 3019b28f60fca2b488096e492944f1c9, type: 3}
  - m_RefCount: 1
    m_Data: {fileID: -912562734, guid: 3019b28f60fca2b488096e492944f1c9, type: 3}
  - m_RefCount: 1
    m_Data: {fileID: 1390010834, guid: 3019b28f60fca2b488096e492944f1c9, type: 3}
  - m_RefCount: 1
    m_Data: {fileID: 1421615311, guid: 3019b28f60fca2b488096e492944f1c9, type: 3}
  - m_RefCount: 1
    m_Data: {fileID: -1966684151, guid: 3019b28f60fca2b488096e492944f1c9, type: 3}
  - m_RefCount: 1
    m_Data: {fileID: -389378658, guid: 3019b28f60fca2b488096e492944f1c9, type: 3}
  - m_RefCount: 1
    m_Data: {fileID: -1452283872, guid: 3019b28f60fca2b488096e492944f1c9, type: 3}
  - m_RefCount: 1
    m_Data: {fileID: -141424129, guid: 3019b28f60fca2b488096e492944f1c9, type: 3}
  - m_RefCount: 1
    m_Data: {fileID: -217274554, guid: 3019b28f60fca2b488096e492944f1c9, type: 3}
  - m_RefCount: 1
    m_Data: {fileID: -2142966495, guid: 3019b28f60fca2b488096e492944f1c9, type: 3}
  - m_RefCount: 1
    m_Data: {fileID: -43530273, guid: 3019b28f60fca2b488096e492944f1c9, type: 3}
  - m_RefCount: 1
    m_Data: {fileID: -421778936, guid: 3019b28f60fca2b488096e492944f1c9, type: 3}
  - m_RefCount: 1
    m_Data: {fileID: 1136067246, guid: 3019b28f60fca2b488096e492944f1c9, type: 3}
  - m_RefCount: 1
    m_Data: {fileID: 1892993944, guid: 3019b28f60fca2b488096e492944f1c9, type: 3}
  - m_RefCount: 1
    m_Data: {fileID: 29510123, guid: 3019b28f60fca2b488096e492944f1c9, type: 3}
  - m_RefCount: 1
    m_Data: {fileID: -1488113283, guid: 3019b28f60fca2b488096e492944f1c9, type: 3}
  - m_RefCount: 1
    m_Data: {fileID: 459101871, guid: 3019b28f60fca2b488096e492944f1c9, type: 3}
  - m_RefCount: 1
    m_Data: {fileID: 751435200, guid: 3019b28f60fca2b488096e492944f1c9, type: 3}
  - m_RefCount: 1
    m_Data: {fileID: 1503490563, guid: 3019b28f60fca2b488096e492944f1c9, type: 3}
  - m_RefCount: 1
    m_Data: {fileID: 1791832215, guid: 3019b28f60fca2b488096e492944f1c9, type: 3}
  - m_RefCount: 1
    m_Data: {fileID: 777887135, guid: 3019b28f60fca2b488096e492944f1c9, type: 3}
  - m_RefCount: 1
    m_Data: {fileID: 1727281770, guid: 3019b28f60fca2b488096e492944f1c9, type: 3}
  - m_RefCount: 1
    m_Data: {fileID: 2029544878, guid: 3019b28f60fca2b488096e492944f1c9, type: 3}
  - m_RefCount: 1
    m_Data: {fileID: 1033406366, guid: 3019b28f60fca2b488096e492944f1c9, type: 3}
  - m_RefCount: 1
    m_Data: {fileID: 977500017, guid: 3019b28f60fca2b488096e492944f1c9, type: 3}
  - m_RefCount: 1
    m_Data: {fileID: -732384873, guid: 3019b28f60fca2b488096e492944f1c9, type: 3}
  - m_RefCount: 1
    m_Data: {fileID: -1413189297, guid: 3019b28f60fca2b488096e492944f1c9, type: 3}
  - m_RefCount: 1
    m_Data: {fileID: 1525614678, guid: 3019b28f60fca2b488096e492944f1c9, type: 3}
  - m_RefCount: 1
    m_Data: {fileID: 963257907, guid: 3019b28f60fca2b488096e492944f1c9, type: 3}
  - m_RefCount: 1
    m_Data: {fileID: -1930358622, guid: 3019b28f60fca2b488096e492944f1c9, type: 3}
  - m_RefCount: 1
    m_Data: {fileID: 391165326, guid: 3019b28f60fca2b488096e492944f1c9, type: 3}
  - m_RefCount: 1
    m_Data: {fileID: 2081433018, guid: 3019b28f60fca2b488096e492944f1c9, type: 3}
  - m_RefCount: 1
    m_Data: {fileID: -125236288, guid: 3019b28f60fca2b488096e492944f1c9, type: 3}
  m_TileMatrixArray:
  - m_RefCount: 144
    m_Data:
      e00: 1
      e01: 0
      e02: 0
      e03: 0
      e10: 0
      e11: 1
      e12: 0
      e13: 0
      e20: 0
      e21: 0
      e22: 1
      e23: 0
      e30: 0
      e31: 0
      e32: 0
      e33: 1
  m_TileColorArray:
  - m_RefCount: 144
    m_Data: {r: 1, g: 1, b: 1, a: 1}
  m_TileObjectToInstantiateArray: []
  m_AnimationFrameRate: 1
  m_Color: {r: 1, g: 1, b: 1, a: 1}
  m_Origin: {x: -3, y: -10, z: 0}
  m_Size: {x: 12, y: 12, z: 1}
  m_TileAnchor: {x: 0.5, y: 0.5, z: 0}
  m_TileOrientation: 0
  m_TileOrientationMatrix:
    e00: 1
    e01: 0
    e02: 0
    e03: 0
    e10: 0
    e11: 1
    e12: 0
    e13: 0
    e20: 0
    e21: 0
    e22: 1
    e23: 0
    e30: 0
    e31: 0
    e32: 0
    e33: 1
--- !u!483693784 &2630251890182126077
TilemapRenderer:
  m_ObjectHideFlags: 0
  m_CorrespondingSourceObject: {fileID: 0}
  m_PrefabInstance: {fileID: 0}
  m_PrefabAsset: {fileID: 0}
  m_GameObject: {fileID: 2343770661906641048}
  m_Enabled: 1
  m_CastShadows: 0
  m_ReceiveShadows: 0
  m_DynamicOccludee: 0
  m_StaticShadowCaster: 0
  m_MotionVectors: 1
  m_LightProbeUsage: 0
  m_ReflectionProbeUsage: 0
  m_RayTracingMode: 0
  m_RayTraceProcedural: 0
  m_RenderingLayerMask: 1
  m_RendererPriority: 0
  m_Materials:
  - {fileID: 2100000, guid: a97c105638bdf8b4a8650670310a4cd3, type: 2}
  m_StaticBatchInfo:
    firstSubMesh: 0
    subMeshCount: 0
  m_StaticBatchRoot: {fileID: 0}
  m_ProbeAnchor: {fileID: 0}
  m_LightProbeVolumeOverride: {fileID: 0}
  m_ScaleInLightmap: 1
  m_ReceiveGI: 1
  m_PreserveUVs: 0
  m_IgnoreNormalsForChartDetection: 0
  m_ImportantGI: 0
  m_StitchLightmapSeams: 1
  m_SelectedEditorRenderState: 0
  m_MinimumChartSize: 4
  m_AutoUVMaxDistance: 0.5
  m_AutoUVMaxAngle: 89
  m_LightmapParameters: {fileID: 0}
  m_SortingLayerID: 0
  m_SortingLayer: 0
  m_SortingOrder: 0
  m_ChunkSize: {x: 32, y: 32, z: 32}
  m_ChunkCullingBounds: {x: 0, y: 0, z: 0}
  m_MaxChunkCount: 16
  m_MaxFrameAge: 16
  m_SortOrder: 0
  m_Mode: 0
  m_DetectChunkCullingBounds: 0
  m_MaskInteraction: 0
--- !u!1 &6716214433997898762
GameObject:
  m_ObjectHideFlags: 0
  m_CorrespondingSourceObject: {fileID: 0}
  m_PrefabInstance: {fileID: 0}
  m_PrefabAsset: {fileID: 0}
  serializedVersion: 6
  m_Component:
  - component: {fileID: 679398164566093887}
  - component: {fileID: 1082993180404088561}
  m_Layer: 0
  m_Name: Base_p
  m_TagString: Untagged
  m_Icon: {fileID: 0}
  m_NavMeshLayer: 0
  m_StaticEditorFlags: 0
  m_IsActive: 1
--- !u!4 &679398164566093887
Transform:
  m_ObjectHideFlags: 0
  m_CorrespondingSourceObject: {fileID: 0}
  m_PrefabInstance: {fileID: 0}
  m_PrefabAsset: {fileID: 0}
  m_GameObject: {fileID: 6716214433997898762}
  m_LocalRotation: {x: 0, y: 0, z: 0, w: 1}
  m_LocalPosition: {x: 0, y: 0, z: 0}
  m_LocalScale: {x: 1, y: 1, z: 1}
  m_ConstrainProportionsScale: 0
  m_Children:
  - {fileID: 8853235474751728414}
  m_Father: {fileID: 0}
  m_RootOrder: 0
  m_LocalEulerAnglesHint: {x: 0, y: 0, z: 0}
--- !u!156049354 &1082993180404088561
Grid:
  m_ObjectHideFlags: 0
  m_CorrespondingSourceObject: {fileID: 0}
  m_PrefabInstance: {fileID: 0}
  m_PrefabAsset: {fileID: 0}
  m_GameObject: {fileID: 6716214433997898762}
  m_Enabled: 1
  m_CellSize: {x: 0.16, y: 0.16, z: 0}
  m_CellGap: {x: 0, y: 0, z: 0}
  m_CellLayout: 0
  m_CellSwizzle: 0
--- !u!114 &5817359238300653002
MonoBehaviour:
  m_ObjectHideFlags: 0
  m_CorrespondingSourceObject: {fileID: 0}
  m_PrefabInstance: {fileID: 0}
  m_PrefabAsset: {fileID: 0}
  m_GameObject: {fileID: 0}
  m_Enabled: 1
  m_EditorHideFlags: 0
  m_Script: {fileID: 12395, guid: 0000000000000000e000000000000000, type: 0}
  m_Name: Palette Settings
  m_EditorClassIdentifier: 
  cellSizing: 0
  m_TransparencySortMode: 0
  m_TransparencySortAxis: {x: 0, y: 0, z: 1}
